﻿<Cube xmlns:xsd="http://www.w3.org/2001/XMLSchema" xmlns:xsi="http://www.w3.org/2001/XMLSchema-instance" xmlns:ddl2="http://schemas.microsoft.com/analysisservices/2003/engine/2" xmlns:ddl2_2="http://schemas.microsoft.com/analysisservices/2003/engine/2/2" xmlns:ddl100_100="http://schemas.microsoft.com/analysisservices/2008/engine/100/100" xmlns:ddl200="http://schemas.microsoft.com/analysisservices/2010/engine/200" xmlns:ddl200_200="http://schemas.microsoft.com/analysisservices/2010/engine/200/200" xmlns:dwd="http://schemas.microsoft.com/DataWarehouse/Designer/1.0" dwd:design-time-name="fbb6b418-7bca-448c-9e23-60704da42284" xmlns="http://schemas.microsoft.com/analysisservices/2003/engine">
  <ID>DenormalizedTransactionAmounts</ID>
  <Name>DenormalizedTransactionAmounts</Name>
  <CreatedTimestamp>0001-01-01T00:00:00Z</CreatedTimestamp>
  <LastSchemaUpdate>0001-01-01T00:00:00Z</LastSchemaUpdate>
  <Annotations>
    <Annotation>
      <Name>http://schemas.microsoft.com/DataWarehouse/Designer/1.0:DiagramLayout</Name>
      <Value>
        <dds xmlns="">
          <diagram fontclsid="{0BE35203-8F91-11CE-9DE3-00AA004BB851}" mouseiconclsid="{0BE35204-8F91-11CE-9DE3-00AA004BB851}" defaultlayout="MSDDS.Rectilinear" defaultlineroute="MSDDS.Rectilinear" version="7" nextobject="3" scale="100" pagebreakanchorx="0" pagebreakanchory="0" pagebreaksizex="0" pagebreaksizey="0" scrollleft="-11907" scrolltop="-5215" gridx="150" gridy="150" marginx="5000" marginy="5000" zoom="100" x="19024" y="13917" backcolor="15334399" defaultpersistence="2" PrintPageNumbersMode="3" PrintMarginTop="0" PrintMarginBottom="635" PrintMarginLeft="0" PrintMarginRight="0" marqueeselectionmode="0" mousepointer="0" snaptogrid="0" autotypeannotation="1" showscrollbars="0" viewpagebreaks="0" donotforceconnectorsbehindshapes="1" backpictureclsid="{00000000-0000-0000-0000-000000000000}">
            <font>
              <ddsxmlobjectstreamwrapper binary="01000000900144420100065461686f6d61" />
            </font>
            <mouseicon>
              <ddsxmlobjectstreamwrapper binary="6c74000000000000" />
            </mouseicon>
          </diagram>
          <layoutmanager>
            <ddsxmlobj />
          </layoutmanager>
          <ddscontrol controlprogid="DdsShapes.DdsObjectManagedBridge.2" tooltip="DenormalizedTransactionAmounts" left="-3577" top="-1609" logicalid="2" controlid="1" masterid="0" hint1="0" hint2="0" width="7493" height="5000" noresize="0" nomove="0" nodefaultattachpoints="0" autodrag="1" usedefaultiddshape="1" selectable="1" showselectionhandles="1" allownudging="1" isannotation="0" dontautolayout="0" groupcollapsed="0" tabstop="1" visible="1" snaptogrid="0">
            <control>
              <ddsxmlobjectstreaminitwrapper binary="00080000451d000088130000" />
            </control>
            <layoutobject>
              <ddsxmlobj>
                <property name="LogicalObject" value="dbo_DenormalizedTransactionAmounts" vartype="8" />
              </ddsxmlobj>
            </layoutobject>
            <shape groupshapeid="0" groupnode="0" />
          </ddscontrol>
        </dds>
      </Value>
    </Annotation>
    <Annotation>
      <Name>http://schemas.microsoft.com/DataWarehouse/Designer/1.0:ShowFriendlyNames</Name>
      <Value>true</Value>
    </Annotation>
    <Annotation>
      <Name>http://schemas.microsoft.com/DataWarehouse/Designer/1.0:ShowRelationshipNames</Name>
      <Value>false</Value>
    </Annotation>
    <Annotation>
      <Name>http://schemas.microsoft.com/DataWarehouse/Designer/1.0:UseDiagramDefaultLayout</Name>
      <Value>true</Value>
    </Annotation>
    <Annotation>
      <Name>http://schemas.microsoft.com/DataWarehouse/Designer/1.0:DiagramViewPortLeft</Name>
      <Value>-11907</Value>
    </Annotation>
    <Annotation>
      <Name>http://schemas.microsoft.com/DataWarehouse/Designer/1.0:DiagramViewPortTop</Name>
      <Value>-5215</Value>
    </Annotation>
    <Annotation>
      <Name>http://schemas.microsoft.com/DataWarehouse/Designer/1.0:DiagramBoundingLeft</Name>
      <Value>-3577</Value>
    </Annotation>
    <Annotation>
      <Name>http://schemas.microsoft.com/DataWarehouse/Designer/1.0:DiagramBoundingTop</Name>
      <Value>-1609</Value>
    </Annotation>
    <Annotation>
      <Name>http://schemas.microsoft.com/DataWarehouse/Designer/1.0:DiagramZoom</Name>
      <Value>100</Value>
    </Annotation>
  </Annotations>
  <LastProcessed>0001-01-01T00:00:00Z</LastProcessed>
  <State>Unprocessed</State>
  <Dimensions>
    <Dimension dwd:design-time-name="73e05ed7-5c22-4f16-9b58-51dbcb57abb0">
      <ID>Calendar</ID>
      <Name>Calendar</Name>
      <DimensionID>Calendar</DimensionID>
      <Attributes>
        <Attribute dwd:design-time-name="7025ced1-7ac9-44b8-9423-2aecbc63e175">
          <AttributeID>Date</AttributeID>
        </Attribute>
        <Attribute dwd:design-time-name="6e00d653-8e75-4d30-b79f-69ba63107139">
          <AttributeID>Year</AttributeID>
        </Attribute>
        <Attribute dwd:design-time-name="d0d467d6-a518-46dd-80d4-925462bb8ce3">
          <AttributeID>Half Year</AttributeID>
        </Attribute>
        <Attribute dwd:design-time-name="e62aba28-5f6d-453e-9052-6290d1bf0f7b">
          <AttributeID>Quarter</AttributeID>
        </Attribute>
        <Attribute dwd:design-time-name="7dec621a-5d44-45b9-9e40-52870b047d0d">
          <AttributeID>Trimester</AttributeID>
        </Attribute>
        <Attribute dwd:design-time-name="a6317837-7bae-46c5-9fd2-1ae34d0e1a71">
          <AttributeID>Month</AttributeID>
        </Attribute>
        <Attribute dwd:design-time-name="8881dca9-10bf-46dd-859e-70d7be2b2c2d">
          <AttributeID>Week</AttributeID>
        </Attribute>
        <Attribute dwd:design-time-name="0b05e6a4-cd3c-4fad-bb81-72e691f29745">
          <AttributeID>Day Of Year</AttributeID>
        </Attribute>
        <Attribute dwd:design-time-name="99949f78-5eb4-42d4-bc67-bc2cd7947b83">
          <AttributeID>Day Of Half Year</AttributeID>
        </Attribute>
        <Attribute dwd:design-time-name="71a11461-9f33-4d49-b271-418dd640bd72">
          <AttributeID>Day Of Trimester</AttributeID>
        </Attribute>
        <Attribute dwd:design-time-name="9d56dbd0-16b9-4936-8876-150f736b9728">
          <AttributeID>Day Of Quarter</AttributeID>
        </Attribute>
        <Attribute dwd:design-time-name="e12810dc-8b82-4934-9543-2ec161585252">
          <AttributeID>Day Of Month</AttributeID>
        </Attribute>
        <Attribute dwd:design-time-name="a252e5a3-7d5e-4d47-affe-115266f29ebb">
          <AttributeID>Day Of Week</AttributeID>
        </Attribute>
        <Attribute dwd:design-time-name="029fa7b2-e595-4799-8c12-9fd0070906ea">
          <AttributeID>Week Of Year</AttributeID>
        </Attribute>
        <Attribute dwd:design-time-name="e8b4238c-451b-49ce-a2dc-7b0da8edd70d">
          <AttributeID>Month Of Year</AttributeID>
        </Attribute>
        <Attribute dwd:design-time-name="bc9deffa-cb4c-4ace-a95c-1201b09b4aa9">
          <AttributeID>Month Of Half Year</AttributeID>
        </Attribute>
        <Attribute dwd:design-time-name="4c397691-128c-417b-9586-fe7d731f6b8e">
          <AttributeID>Month Of Trimester</AttributeID>
        </Attribute>
        <Attribute dwd:design-time-name="1027aacc-efb7-46db-b9b8-eb0a601778c0">
          <AttributeID>Month Of Quarter</AttributeID>
        </Attribute>
        <Attribute dwd:design-time-name="869f3d62-55c2-449f-b4d0-f91412b2372c">
          <AttributeID>Quarter Of Year</AttributeID>
        </Attribute>
        <Attribute dwd:design-time-name="8d3912b8-a47f-4c29-9eeb-7d949b27a978">
          <AttributeID>Quarter Of Half Year</AttributeID>
        </Attribute>
        <Attribute dwd:design-time-name="38b3cf41-7102-478d-bcf1-162b0521ebf9">
          <AttributeID>Trimester Of Year</AttributeID>
        </Attribute>
        <Attribute dwd:design-time-name="46de2be2-ec69-44a3-b483-7ff33df13d65">
          <AttributeID>Half Year Of Year</AttributeID>
        </Attribute>
      </Attributes>
    </Dimension>
    <Dimension dwd:design-time-name="480df62f-1572-4caf-af73-b635fc5a9bee">
      <ID>Denormalized Transaction Amounts</ID>
      <Name>Denormalized Transaction Amounts</Name>
      <DimensionID>Denormalized Transaction Amounts</DimensionID>
      <Attributes>
        <Attribute dwd:design-time-name="81bda7ce-04af-48a1-8b33-d931f83b008a">
          <AttributeID>ID</AttributeID>
          <AttributeHierarchyVisible>false</AttributeHierarchyVisible>
        </Attribute>
        <Attribute dwd:design-time-name="82f52ad6-8082-4774-a35b-17ab208c7e42">
          <AttributeID>Amount Type Name</AttributeID>
        </Attribute>
        <Attribute dwd:design-time-name="07564d63-bf50-4960-94d5-d48f951dd014">
          <AttributeID>Merchant Name</AttributeID>
        </Attribute>
        <Attribute dwd:design-time-name="65f85157-ed3d-4e67-8533-e735a54b4f1b">
          <AttributeID>Transaction Status</AttributeID>
        </Attribute>
        <Attribute dwd:design-time-name="5bb14a6b-5a35-4f35-97ca-75401656005b">
          <AttributeID>Transaction Currency Iso Code</AttributeID>
        </Attribute>
        <Attribute dwd:design-time-name="e136e7fc-877e-4445-98c9-d45be409e458">
          <AttributeID>Terminal Name</AttributeID>
        </Attribute>
        <Attribute dwd:design-time-name="6c103b2d-2c44-4be9-981c-b48a16eaf5e9">
          <AttributeID>Acquiring Bank Name</AttributeID>
        </Attribute>
        <Attribute dwd:design-time-name="d33b9326-59ec-4826-b84f-2526561a9363">
          <AttributeID>Payment Method Name</AttributeID>
        </Attribute>
        <Attribute dwd:design-time-name="17150904-58c5-4020-a8f0-bbe25a37dbd9">
          <AttributeID>IP Country</AttributeID>
        </Attribute>
        <Attribute dwd:design-time-name="8e5ed73c-d12c-4b2a-ac08-e915c46feb67">
          <AttributeID>BIN Country</AttributeID>
        </Attribute>
        <Attribute dwd:design-time-name="8628b1bb-cfe6-46a8-b29e-7023f90d616c">
          <AttributeID>Settled Currency Iso Code</AttributeID>
        </Attribute>
      </Attributes>
    </Dimension>
  </Dimensions>
  <MeasureGroups>
    <MeasureGroup dwd:design-time-name="829dd398-d7fe-4a4c-afc0-5e643c93083b">
      <ID>Denormalized Transaction Amounts</ID>
      <Name>Denormalized Transaction Amounts</Name>
      <CreatedTimestamp>0001-01-01T00:00:00Z</CreatedTimestamp>
      <LastSchemaUpdate>0001-01-01T00:00:00Z</LastSchemaUpdate>
      <LastProcessed>0001-01-01T00:00:00Z</LastProcessed>
      <State>Unprocessed</State>
      <Measures>
        <Measure dwd:design-time-name="af2b821d-bd06-4d69-8b94-4bd66ff4f1dd">
          <ID>Amount</ID>
          <Name>Amount</Name>
          <Source dwd:design-time-name="3e9d5783-9c84-4361-b6a5-448009feb431">
            <DataType>Double</DataType>
            <Source xsi:type="ColumnBinding" dwd:design-time-name="0814f395-952c-44a0-9788-85c982105857">
              <TableID>dbo_DenormalizedTransactionAmounts</TableID>
              <ColumnID>Amount</ColumnID>
            </Source>
          </Source>
        </Measure>
        <Measure dwd:design-time-name="311ca3de-5842-4789-87be-48bf7fb7bec1">
          <ID>Amount USD</ID>
          <Name>Amount USD</Name>
          <Source dwd:design-time-name="38c5f1d7-ec35-4334-8f06-6ed8443c9fd2">
            <DataType>Double</DataType>
            <Source xsi:type="ColumnBinding" dwd:design-time-name="59509000-d1b5-4d51-be0a-259e40d82509">
              <TableID>dbo_DenormalizedTransactionAmounts</TableID>
              <ColumnID>AmountUSD</ColumnID>
            </Source>
          </Source>
        </Measure>
        <Measure dwd:design-time-name="cd60c0d0-62e6-478b-bcd3-7d4d548b131d">
          <ID>Denormalized Transaction Amounts Count</ID>
          <Name>Count</Name>
          <AggregateFunction>Count</AggregateFunction>
          <Source dwd:design-time-name="b8eb7a8c-b40d-408c-a2b6-1a8f3d4bfc49">
            <DataType>Integer</DataType>
            <DataSize>4</DataSize>
            <Source xsi:type="RowBinding" dwd:design-time-name="2f7b6c0f-0ee2-49c0-9d08-80e3200725ab">
              <TableID>dbo_DenormalizedTransactionAmounts</TableID>
            </Source>
          </Source>
        </Measure>
        <Measure dwd:design-time-name="aca68ab8-9c5e-45c2-8650-abe9656f23d2">
          <ID>Settled Amount</ID>
          <Name>Settled Amount</Name>
          <Source dwd:design-time-name="8a4420ba-3078-4af3-b9f8-af626e37cb02">
            <DataType>Double</DataType>
            <Source xsi:type="ColumnBinding" dwd:design-time-name="8aae750d-4a2f-444d-9e17-6c6cdd5215ad">
              <TableID>dbo_DenormalizedTransactionAmounts</TableID>
              <ColumnID>SettledAmount</ColumnID>
            </Source>
          </Source>
        </Measure>
        <Measure dwd:design-time-name="0851cd59-8cc1-4247-a8d4-6c8ee6e42365">
          <ID>Settled Amount USD</ID>
          <Name>Settled Amount USD</Name>
          <Source dwd:design-time-name="27c9aaeb-017c-47f1-ba5f-fae01456f102">
            <DataType>Double</DataType>
            <Source xsi:type="ColumnBinding" dwd:design-time-name="7ad0207d-8ddb-4f36-a5ee-f2380409f14b">
              <TableID>dbo_DenormalizedTransactionAmounts</TableID>
              <ColumnID>SettledAmountUSD</ColumnID>
            </Source>
          </Source>
        </Measure>
      </Measures>
      <StorageMode>Molap</StorageMode>
      <ProcessingMode>Regular</ProcessingMode>
      <Dimensions>
        <Dimension xsi:type="DegenerateMeasureGroupDimension" dwd:design-time-name="70b01609-da68-47c9-8f2e-a828e255b83c">
          <CubeDimensionID>Denormalized Transaction Amounts</CubeDimensionID>
          <Attributes>
            <Attribute dwd:design-time-name="29d491f2-d928-4fe2-b42a-9f1d5681c326">
              <AttributeID>ID</AttributeID>
              <KeyColumns>
                <KeyColumn dwd:design-time-name="2204c0a5-d3fa-4dcc-9716-57556eab60fb">
                  <DataType>Integer</DataType>
                  <Source xsi:type="ColumnBinding" dwd:design-time-name="a5816b02-a33d-4184-8c82-8794c3fd91e1">
                    <TableID>dbo_DenormalizedTransactionAmounts</TableID>
                    <ColumnID>ID</ColumnID>
                  </Source>
                </KeyColumn>
              </KeyColumns>
              <Type>Granularity</Type>
            </Attribute>
          </Attributes>
        </Dimension>
        <Dimension xsi:type="RegularMeasureGroupDimension" dwd:design-time-name="06601ec2-98e0-4039-b195-91265bc1e760">
          <CubeDimensionID>Calendar</CubeDimensionID>
          <Attributes>
            <Attribute dwd:design-time-name="a7b30bfa-15cd-4c44-9434-82c344244734">
              <AttributeID>Date</AttributeID>
              <KeyColumns>
                <KeyColumn dwd:design-time-name="5db99f6b-4935-474f-9105-f2ec57505003">
                  <DataType>Date</DataType>
                  <Source xsi:type="ColumnBinding" dwd:design-time-name="a3a55d0c-1016-4875-8bac-6cf00590fc13">
                    <TableID>dbo_DenormalizedTransactionAmounts</TableID>
                    <ColumnID>TimelessAmountDate</ColumnID>
                  </Source>
                </KeyColumn>
              </KeyColumns>
              <Type>Granularity</Type>
            </Attribute>
          </Attributes>
        </Dimension>
      </Dimensions>
      <Partitions />
    </MeasureGroup>
  </MeasureGroups>
  <Source dwd:design-time-name="b9856b2d-1d17-43ab-934e-af5f61869647">
    <DataSourceViewID>Reports</DataSourceViewID>
  </Source>
  <MdxScripts>
    <MdxScript dwd:design-time-name="ef3b37ad-70e8-4993-8e35-bd7811898a92">
      <ID>MdxScript</ID>
      <Name>MdxScript</Name>
      <CreatedTimestamp>0001-01-01T00:00:00Z</CreatedTimestamp>
      <LastSchemaUpdate>0001-01-01T00:00:00Z</LastSchemaUpdate>
      <Commands>
        <Command>
          <Text>calculate; </Text>
        </Command>
      </Commands>
    </MdxScript>
  </MdxScripts>
</Cube>